# Blender v2.82 (sub 7) OBJ File: ''
# www.blender.org
mtllib Cloud.mtl
o Plane
v 1.510470 0.000000 2.994742
v 1.489512 0.000000 -3.005222
v -1.489512 0.000000 3.005222
v -1.510470 0.000000 -2.994742
vt 1.000000 0.000000
vt 0.000000 1.000000
vt 0.000000 0.000000
vt 1.000000 1.000000
vn 0.0000 1.0000 0.0000
usemtl Material.001
s off
f 2/1/1 3/2/1 1/3/1
f 2/1/1 4/4/1 3/2/1
